"type";"size";"time"
naive;100;0.005914
better;100;0.005204
blas;100;0.000733
naive;100;0.005339
better;100;0.005060
blas;100;0.000714
naive;100;0.005351
better;100;0.005150
blas;100;0.000716
naive;100;0.005320
better;100;0.005058
blas;100;0.000715
naive;100;0.005404
better;100;0.005163
blas;100;0.000728
naive;100;0.005392
better;100;0.005080
blas;100;0.000715
naive;100;0.005452
better;100;0.005072
blas;100;0.000716
naive;100;0.005368
better;100;0.004974
blas;100;0.000768
naive;100;0.005387
better;100;0.005074
blas;100;0.000714
naive;100;0.005379
better;100;0.005143
blas;100;0.000736
naive;150;0.019577
better;150;0.016937
blas;150;0.002376
naive;150;0.019227
better;150;0.017241
blas;150;0.002304
naive;150;0.019031
better;150;0.017122
blas;150;0.002214
naive;150;0.019440
better;150;0.017024
blas;150;0.002250
naive;150;0.019242
better;150;0.017002
blas;150;0.002243
naive;150;0.019159
better;150;0.017258
blas;150;0.002276
naive;150;0.019171
better;150;0.017179
blas;150;0.002307
naive;150;0.019159
better;150;0.017087
blas;150;0.002305
naive;150;0.019070
better;150;0.017172
blas;150;0.002289
naive;150;0.019115
better;150;0.017046
blas;150;0.002215
naive;200;0.046839
better;200;0.040313
blas;200;0.005520
naive;200;0.046610
better;200;0.040304
blas;200;0.005401
naive;200;0.046491
better;200;0.040281
blas;200;0.005494
naive;200;0.046500
better;200;0.040999
blas;200;0.005441
naive;200;0.046654
better;200;0.040241
blas;200;0.005379
naive;200;0.046570
better;200;0.040305
blas;200;0.005540
naive;200;0.046729
better;200;0.040707
blas;200;0.005466
naive;200;0.047410
better;200;0.040371
blas;200;0.005545
naive;200;0.047192
better;200;0.040896
blas;200;0.005520
naive;200;0.046541
better;200;0.040091
blas;200;0.005476
naive;250;0.096351
better;250;0.078568
blas;250;0.010381
naive;250;0.096831
better;250;0.078307
blas;250;0.010437
naive;250;0.095800
better;250;0.078833
blas;250;0.010731
naive;250;0.100459
better;250;0.084100
blas;250;0.011099
naive;250;0.099039
better;250;0.078329
blas;250;0.010405
naive;250;0.095922
better;250;0.078315
blas;250;0.010392
naive;250;0.095371
better;250;0.078604
blas;250;0.010684
naive;250;0.099315
better;250;0.081979
blas;250;0.010653
naive;250;0.098975
better;250;0.082197
blas;250;0.010997
naive;250;0.100143
better;250;0.081509
blas;250;0.010911
naive;300;0.171746
better;300;0.139534
blas;300;0.019328
naive;300;0.179985
better;300;0.142126
blas;300;0.019306
naive;300;0.165063
better;300;0.134799
blas;300;0.018166
naive;300;0.164708
better;300;0.135672
blas;300;0.017992
naive;300;0.164144
better;300;0.138194
blas;300;0.018072
naive;300;0.165948
better;300;0.134138
blas;300;0.017864
naive;300;0.161480
better;300;0.132787
blas;300;0.017789
naive;300;0.163206
better;300;0.135407
blas;300;0.018170
naive;300;0.164096
better;300;0.135263
blas;300;0.018367
naive;300;0.164351
better;300;0.135767
blas;300;0.018125
naive;350;0.271963
better;350;0.215367
blas;350;0.028114
naive;350;0.268340
better;350;0.214720
blas;350;0.028285
naive;350;0.270344
better;350;0.220879
blas;350;0.028724
naive;350;0.270620
better;350;0.215536
blas;350;0.028572
naive;350;0.271814
better;350;0.214266
blas;350;0.028471
naive;350;0.271635
better;350;0.215071
blas;350;0.028447
naive;350;0.271807
better;350;0.214762
blas;350;0.028216
naive;350;0.272393
better;350;0.214391
blas;350;0.028292
naive;350;0.276128
better;350;0.215427
blas;350;0.028557
naive;350;0.272180
better;350;0.214572
blas;350;0.028359
naive;400;0.559618
better;400;0.320000
blas;400;0.042791
naive;400;0.551281
better;400;0.320574
blas;400;0.042057
naive;400;0.554874
better;400;0.320565
blas;400;0.042779
naive;400;0.553981
better;400;0.320479
blas;400;0.043119
naive;400;0.556746
better;400;0.319366
blas;400;0.042495
naive;400;0.553372
better;400;0.320500
blas;400;0.042841
naive;400;0.556617
better;400;0.320125
blas;400;0.043137
naive;400;0.553400
better;400;0.322896
blas;400;0.043041
naive;400;0.555949
better;400;0.320154
blas;400;0.043018
naive;400;0.555313
better;400;0.320411
blas;400;0.043512
naive;450;1.055307
better;450;0.455910
blas;450;0.060532
naive;450;1.053894
better;450;0.456066
blas;450;0.060789
naive;450;1.065411
better;450;0.455402
blas;450;0.059505
naive;450;1.064959
better;450;0.457536
blas;450;0.060654
naive;450;1.056586
better;450;0.455128
blas;450;0.060760
naive;450;1.053828
better;450;0.457355
blas;450;0.060717
naive;450;1.056368
better;450;0.454674
blas;450;0.061758
naive;450;1.039539
better;450;0.454284
blas;450;0.060615
naive;450;1.068743
better;450;0.457855
blas;450;0.060279
naive;450;1.053667
better;450;0.457696
blas;450;0.060976
naive;500;1.607658
better;500;0.625187
blas;500;0.083095
naive;500;1.598278
better;500;0.625979
blas;500;0.081971
naive;500;1.608178
better;500;0.625463
blas;500;0.082052
naive;500;1.592272
better;500;0.628031
blas;500;0.083805
naive;500;1.600830
better;500;0.624992
blas;500;0.083184
naive;500;1.608392
better;500;0.625433
blas;500;0.083468
naive;500;1.604534
better;500;0.624307
blas;500;0.083104
naive;500;1.609402
better;500;0.625956
blas;500;0.082830
naive;500;1.630243
better;500;0.629651
blas;500;0.083763
naive;500;1.605311
better;500;0.624469
blas;500;0.083045
